^C:\USERS\דניאל\SOURCE\REPOS\PYTONINTERPETER\Q1\HELPER.CPP
/c /ZI /JMC /nologo /W3 /WX- /diagnostics:classic /sdl /Od /Oy- /D _MBCS /Gm- /EHsc /RTC1 /MDd /GS /fp:precise /permissive- /Zc:wchar_t /Zc:forScope /Zc:inline /Fo"DEBUG\\" /Fd"DEBUG\VC141.PDB" /Gd /TP /analyze- /FC C:\USERS\דניאל\SOURCE\REPOS\PYTONINTERPETER\Q1\HELPER.CPP
^C:\USERS\דניאל\SOURCE\REPOS\PYTONINTERPETER\Q1\SYNTAXEXCEPTION.CPP
/c /ZI /JMC /nologo /W3 /WX- /diagnostics:classic /sdl /Od /Oy- /D _MBCS /Gm- /EHsc /RTC1 /MDd /GS /fp:precise /permissive- /Zc:wchar_t /Zc:forScope /Zc:inline /Fo"DEBUG\\" /Fd"DEBUG\VC141.PDB" /Gd /TP /analyze- /FC C:\USERS\דניאל\SOURCE\REPOS\PYTONINTERPETER\Q1\SYNTAXEXCEPTION.CPP
^C:\USERS\דניאל\SOURCE\REPOS\PYTONINTERPETER\Q1\INDENTATIONEXCEPTION.CPP
/c /ZI /JMC /nologo /W3 /WX- /diagnostics:classic /sdl /Od /Oy- /D _MBCS /Gm- /EHsc /RTC1 /MDd /GS /fp:precise /permissive- /Zc:wchar_t /Zc:forScope /Zc:inline /Fo"DEBUG\\" /Fd"DEBUG\VC141.PDB" /Gd /TP /analyze- /FC C:\USERS\דניאל\SOURCE\REPOS\PYTONINTERPETER\Q1\INDENTATIONEXCEPTION.CPP
^C:\USERS\דניאל\SOURCE\REPOS\PYTONINTERPETER\Q1\NAMEERROREXCEPTION.CPP
/c /ZI /JMC /nologo /W3 /WX- /diagnostics:classic /sdl /Od /Oy- /D _MBCS /Gm- /EHsc /RTC1 /MDd /GS /fp:precise /permissive- /Zc:wchar_t /Zc:forScope /Zc:inline /Fo"DEBUG\\" /Fd"DEBUG\VC141.PDB" /Gd /TP /analyze- /FC C:\USERS\דניאל\SOURCE\REPOS\PYTONINTERPETER\Q1\NAMEERROREXCEPTION.CPP
^C:\USERS\דניאל\SOURCE\REPOS\PYTONINTERPETER\Q1\BOOLEAN.CPP
/c /ZI /JMC /nologo /W3 /WX- /diagnostics:classic /sdl /Od /Oy- /D _MBCS /Gm- /EHsc /RTC1 /MDd /GS /fp:precise /permissive- /Zc:wchar_t /Zc:forScope /Zc:inline /Fo"DEBUG\\" /Fd"DEBUG\VC141.PDB" /Gd /TP /analyze- /FC C:\USERS\דניאל\SOURCE\REPOS\PYTONINTERPETER\Q1\BOOLEAN.CPP
^C:\USERS\דניאל\SOURCE\REPOS\PYTONINTERPETER\Q1\INTEGER.CPP
/c /ZI /JMC /nologo /W3 /WX- /diagnostics:classic /sdl /Od /Oy- /D _MBCS /Gm- /EHsc /RTC1 /MDd /GS /fp:precise /permissive- /Zc:wchar_t /Zc:forScope /Zc:inline /Fo"DEBUG\\" /Fd"DEBUG\VC141.PDB" /Gd /TP /analyze- /FC C:\USERS\דניאל\SOURCE\REPOS\PYTONINTERPETER\Q1\INTEGER.CPP
^C:\USERS\דניאל\SOURCE\REPOS\PYTONINTERPETER\Q1\SEQUENCE.CPP
/c /ZI /JMC /nologo /W3 /WX- /diagnostics:classic /sdl /Od /Oy- /D _MBCS /Gm- /EHsc /RTC1 /MDd /GS /fp:precise /permissive- /Zc:wchar_t /Zc:forScope /Zc:inline /Fo"DEBUG\\" /Fd"DEBUG\VC141.PDB" /Gd /TP /analyze- /FC C:\USERS\דניאל\SOURCE\REPOS\PYTONINTERPETER\Q1\SEQUENCE.CPP
^C:\USERS\דניאל\SOURCE\REPOS\PYTONINTERPETER\Q1\STRING.CPP
/c /ZI /JMC /nologo /W3 /WX- /diagnostics:classic /sdl /Od /Oy- /D _MBCS /Gm- /EHsc /RTC1 /MDd /GS /fp:precise /permissive- /Zc:wchar_t /Zc:forScope /Zc:inline /Fo"DEBUG\\" /Fd"DEBUG\VC141.PDB" /Gd /TP /analyze- /FC C:\USERS\דניאל\SOURCE\REPOS\PYTONINTERPETER\Q1\STRING.CPP
^C:\USERS\דניאל\SOURCE\REPOS\PYTONINTERPETER\Q1\TYPE.CPP
/c /ZI /JMC /nologo /W3 /WX- /diagnostics:classic /sdl /Od /Oy- /D _MBCS /Gm- /EHsc /RTC1 /MDd /GS /fp:precise /permissive- /Zc:wchar_t /Zc:forScope /Zc:inline /Fo"DEBUG\\" /Fd"DEBUG\VC141.PDB" /Gd /TP /analyze- /FC C:\USERS\דניאל\SOURCE\REPOS\PYTONINTERPETER\Q1\TYPE.CPP
^C:\USERS\דניאל\SOURCE\REPOS\PYTONINTERPETER\Q1\VOID.CPP
/c /ZI /JMC /nologo /W3 /WX- /diagnostics:classic /sdl /Od /Oy- /D _MBCS /Gm- /EHsc /RTC1 /MDd /GS /fp:precise /permissive- /Zc:wchar_t /Zc:forScope /Zc:inline /Fo"DEBUG\\" /Fd"DEBUG\VC141.PDB" /Gd /TP /analyze- /FC C:\USERS\דניאל\SOURCE\REPOS\PYTONINTERPETER\Q1\VOID.CPP
^C:\USERS\דניאל\SOURCE\REPOS\PYTONINTERPETER\Q1\PARSER.CPP
/c /ZI /JMC /nologo /W3 /WX- /diagnostics:classic /sdl /Od /Oy- /D _MBCS /Gm- /EHsc /RTC1 /MDd /GS /fp:precise /permissive- /Zc:wchar_t /Zc:forScope /Zc:inline /Fo"DEBUG\\" /Fd"DEBUG\VC141.PDB" /Gd /TP /analyze- /FC C:\USERS\דניאל\SOURCE\REPOS\PYTONINTERPETER\Q1\PARSER.CPP
^C:\USERS\דניאל\SOURCE\REPOS\PYTONINTERPETER\Q1\INTERPRETER.CPP
/c /ZI /JMC /nologo /W3 /WX- /diagnostics:classic /sdl /Od /Oy- /D _MBCS /Gm- /EHsc /RTC1 /MDd /GS /fp:precise /permissive- /Zc:wchar_t /Zc:forScope /Zc:inline /Fo"DEBUG\\" /Fd"DEBUG\VC141.PDB" /Gd /TP /analyze- /FC C:\USERS\דניאל\SOURCE\REPOS\PYTONINTERPETER\Q1\INTERPRETER.CPP
