^C:\USERS\דניאל\SOURCE\REPOS\PYTONINTERPETER\Q1\DEBUG\BOOLEAN.OBJ|C:\USERS\דניאל\SOURCE\REPOS\PYTONINTERPETER\Q1\DEBUG\HELPER.OBJ|C:\USERS\דניאל\SOURCE\REPOS\PYTONINTERPETER\Q1\DEBUG\INDENTATIONEXCEPTION.OBJ|C:\USERS\דניאל\SOURCE\REPOS\PYTONINTERPETER\Q1\DEBUG\INTEGER.OBJ|C:\USERS\דניאל\SOURCE\REPOS\PYTONINTERPETER\Q1\DEBUG\INTERPRETER.OBJ|C:\USERS\דניאל\SOURCE\REPOS\PYTONINTERPETER\Q1\DEBUG\NAMEERROREXCEPTION.OBJ|C:\USERS\דניאל\SOURCE\REPOS\PYTONINTERPETER\Q1\DEBUG\PARSER.OBJ|C:\USERS\דניאל\SOURCE\REPOS\PYTONINTERPETER\Q1\DEBUG\SEQUENCE.OBJ|C:\USERS\דניאל\SOURCE\REPOS\PYTONINTERPETER\Q1\DEBUG\STRING.OBJ|C:\USERS\דניאל\SOURCE\REPOS\PYTONINTERPETER\Q1\DEBUG\SYNTAXEXCEPTION.OBJ|C:\USERS\דניאל\SOURCE\REPOS\PYTONINTERPETER\Q1\DEBUG\TYPE.OBJ|C:\USERS\דניאל\SOURCE\REPOS\PYTONINTERPETER\Q1\DEBUG\VOID.OBJ
C:\USERS\דניאל\SOURCE\REPOS\PYTONINTERPETER\DEBUG\Q1.EXE
C:\USERS\דניאל\SOURCE\REPOS\PYTONINTERPETER\DEBUG\Q1.ILK
C:\USERS\דניאל\SOURCE\REPOS\PYTONINTERPETER\DEBUG\Q1.PDB
